Dictionary of disease ontologies (DODO): a graph database to facilitate access and interaction with disease and phenotype ontologies
…
## From phenotype to disease
toDisease <- convert_concept(from = "HP:0002384",
                               from.concept = "Phenotype",
                               to.concept = "Disease") 
toDisease <- toDisease %>%
  mutate(phenotypeLabel = describe_concept(from)$label,
         diseaseLabel = describe_concept(to)$label)
toDisease

## # A tibble: 72 x 5
##    from    to       deprecated phenotypeLabel       diseaseLabel                
##    <chr>   <chr>    <lgl>      <chr>                <chr>                       
##  1 HP:000 HP:0002 FALSE      Focal impaired awar neuronal ceroid lipofuscino
##  2 HP:000 ClinVar FALSE      Focal impaired awar spinocerebellar ataxia type
##  3 HP:000 UMLS:C0 FALSE      Focal impaired awar hyperekplexia-epilepsy synd
##  4 HP:000 MONDO:0 FALSE      Focal impaired awar bilateral parasagittal pari
##  5 HP:000 MONDO:0 FALSE      Focal impaired awar benign familial neonatal-in
##  6 HP:000 MONDO:0 FALSE      Focal impaired awar unilateral polymicrogyria   
##  7 HP:000 MONDO:0 FALSE      Focal impaired awar Spinocerebellar ataxia type
##  8 HP:000 MONDO:0 FALSE      Focal impaired awar Progressive epilepsy - inte
##  9 HP:000 MONDO:0 FALSE      Focal impaired awar Lafora disease              
## 10 HP:000 MONDO:0 FALSE      Focal impaired awar isolated focal cortical dys
## #  with 62 more rows
…
Build and explore a network of diseases

Building a disease network

While conversion facilitates connecting biomedical resources directly, another possibility provided by DODO is the exploration of diseases and their relationships as a disease network. Contrary to conversion, a network retains all relationships as they are encoded in the DODO graph database. In this use case, we will show how to construct such a disease network and which functionalities are available to interact with a network.

disNet <- build_disNet(term = "amyotrophic lateral sclerosis", 
                       fields = c("label", "synonym"))
disNet

## # A tibble: 251 x 7
##    id      label             definition           shortID level type    database
##    <chr>   <chr>             <chr>                <chr>   <int> <chr>   <chr>   
##  1 ORPHA: Juvenile amyotro Juvenile amyotrophi 300605      6 Concep ORPHA   
##  2 UMLS:C Amyotrophic late <NA>                 C18629    NA Concep UMLS    
##  3 ClinVa Amyotrophic late Amyotrophic lateral 16012      NA Concep ClinVar 
##  4 OMIM:6 AMYOTROPHIC LATE AMYOTROPHIC LATERAL 606640     NA Concep OMIM    
##  5 MedGen Amyotrophic late Amyotrophic lateral C26754    NA Concep MedGen  
##  6 UMLS:C <NA>              <NA>                 C18629    NA Concep UMLS    
##  7 UMLS:C Amyotrophic late <NA>                 C18654    NA Concep UMLS    
##  8 MedGen Amyotrophic late Amyotrophic lateral C32805    NA Concep MedGen  
##  9 OMIM:6 AMYOTROPHIC LATE AMYOTROPHIC LATERAL 613954     NA Concep OMIM    
## 10 MedGen Amyotrophic late Amyotrophic lateral C31514    NA Concep MedGen  
## #  with 241 more rows
## 
## The disNet contains:
##  -  250 disease nodes from 11 ontologies and 1 phenotype nodes from 1 ontologies 
##  -  1126 synonyms of the disease nodes
##  -  62 parent/child edges
##  -  470 crossreference edges
##  -  0 alternative edges
##  -  66 phenotype edges
##  -  The disNet was build based on 251 seeds

Extension through different relationships

After the construction of a disease network, it is likely that it doesnt contain the complete information on that particular disease of interest. The extend_disNet function enriches the disNet and extends it to cross-reference identifiers, child/parent terms, annotated phenotypes/disease, and/or alternative identifiers when available. In concordance with the conversion procedure, extension follows the same two-step approach using transitive mapping on is_xref edges followed by a final one-step extension on any cross-reference relationship taking filtering on backward ambiguity into account. To perform this extension the same parameters can be supplied with similar aims as for the conversion procedure (see above).

disNet <- build_disNet(term = "amyotrophic lateral sclerosis",
                       fields = c("label", "synonym"))
extendedDisNet <- extend_disNet(disNet,
                                relations = c("xref", "child"),
                                intransitive.ambiguity = 1)
extendedDisNet

## # A tibble: 494 x 7
##    id      label             definition            shortID level type   database
##    <chr>   <chr>             <chr>                 <chr>   <int> <chr>  <chr>   
##  1 ORPHA: Juvenile amyotro Juvenile amyotrophic 300605      6 Conce ORPHA   
##  2 UMLS:C Amyotrophic late <NA>                  C18629    NA Conce UMLS    
##  3 GTR:GT <NA>              <NA>                  GTRT00    NA Conce GTR     
##  4 MedGen Inclusion body m Inclusion body myopa C38094    NA Conce MedGen  
##  5 GARD:0 <NA>              <NA>                  0010499    NA Conce GARD    
##  6 ClinVa Amyotrophic late Amyotrophic lateral  16012      NA Conce ClinVar 
##  7 MeSH:C <NA>              <NA>                  C566550    NA Conce MeSH    
##  8 OMIM:6 AMYOTROPHIC LATE AMYOTROPHIC LATERAL  606640     NA Conce OMIM    
##  9 OMIM:1 <NA>              <NA>                  164015     NA Conce OMIM    
## 10 OMIM:6 <NA>              AMYOTROPHIC LATERAL  602572    NA Conce OMIM    
## #  with 484 more rows
## 
## The disNet contains:
##  -  493 disease nodes from 24 ontologies and 1 phenotype nodes from 1 ontologies 
##  -  1431 synonyms of the disease nodes
##  -  81 parent/child edges
##  -  888 crossreference edges
##  -  0 alternative edges
##  -  0 phenotype edges
##  -  The disNet was build based on 251 seeds

(ref:fig10) The disNet build on the term amyotrophic lateral sclerosis querying both labels and synonyms provided in DODO (green nodes). This disNet is subsequently extended to return all cross-reference identifiers and child terms using the extend_disNet function (orange nodes) (parameters relations = c(xref, child) and intransitive_ambiguity = 1 to return only equivalent identifiers)

(ref:fig10)

The disease network gathers 488 disease concepts across 25 ontologies; only 251 where identified directly matching the search term (Figure @ref(fig:alsplotdisNet)). The additional terms were obtained through extension of both cross-references and parent/child relationships. Of specific note is the extension to (or from) phenotype information. Within one extension all different parameters (xref, child, parent, alt, and disease/phenotype) can be supplied with the exception that it is not possible to extend to both disease and phenotype simultaneously. In contrast with the conversion procedure, it does not use the transitivity mechanisms but rather takes all the diseases within the network and returns any associated phenotypes that can be obtained through the has_pheno relationship.

disNet <- build_disNet(id = c("HP:0003394", "HP:0002180", "HP:0002878"))
disNet <- extend_disNet(disNet = disNet, relations = "disease")
disNet

## # A tibble: 397 x 7
##    id      label            definition            shortID level type    database
##    <chr>   <chr>            <chr>                 <chr>   <int> <chr>   <chr>   
##  1 MONDO: glycogen storag "Phosphoglycerate ki 0010392    11 Concep MONDO   
##  2 OMIM:6 NEURODEGENERATI "NEURODEGENERATION W 610217     NA Concep OMIM    
##  3 MONDO: adult-onset dis "Adult-onset distal  0018006    10 Concep MONDO   
##  4 MONDO: Charcot-Marie-T "Autosomal dominant  0011675     9 Concep MONDO   
##  5 OMIM:6 MOTOR NEURON DI "MOTOR NEURON DISEAS 600333     NA Concep OMIM    
##  6 MONDO: pure mitochondr "Pure mitochondrial  0016807    11 Concep MONDO   
##  7 ORPHA: Congenital musc "Congenital muscular 258         8 Concep ORPHA   
##  8 OMIM:3 MITOCHONDRIAL C "MITOCHONDRIAL COMPL 301021     NA Concep OMIM    
##  9 ORPHA: Nocardiosis      "Nocardiosis is a lo 31204       4 Concep ORPHA   
## 10 ORPHA: Mitochondrial e " mutation is charac 1194        9 Concep ORPHA   
## #  with 387 more rows
## 
## The disNet contains:
##  -  394 disease nodes from 6 ontologies and 3 phenotype nodes from 1 ontologies 
##  -  2206 synonyms of the disease nodes
##  -  0 parent/child edges
##  -  0 crossreference edges
##  -  0 alternative edges
##  -  398 phenotype edges
…
