Dictionary of disease ontologies
…
disNet <- build_disNet(id = c("MONDO:0005144"))

disNet <- build_disNet(term = "amyotrophic lateral sclerosis", 
                       fields = c("label", "synonym"))

4.3 Extending a disNet

When building a disNet by either identifier(s) or search term(s), the resulting disNet will likely not contain the complete information on that particular disease landscape. The extend_disNet function enriches the disNet and extends it to cross-reference identifiers, child/parent terms, annotated phenotypes/disease, and/or alternative identifieres when available. In concordance with the conversion procedure, extension follows the same two-step approach. Please refer to paragraph 4.1 for more details and the different use cases.

Of specific note is the extension to (or from) phenotype information. Within one extension all different parameters (xref, child, parent, alt, and disease/phenotype) can be supplied with the exception that it is not possible to extend to both disease and phenotype simultaneously. Extending to or from phenotypes does not employ the transitivity mechanism but is performed as a final step (similar to conversion, please refer to paragraph @ref{converting-concepts} for more details).

disNet <- build_disNet(id = c("HP:0003394", "HP:0002180", "HP:0002878"))
disNet <- extend_disNet(disNet = disNet, relations = "disease")
disNet
#> # A tibble: 397 x 7
#>    id      label            definition            shortID level type    database
#>    <chr>   <chr>            <chr>                 <chr>   <int> <chr>   <chr>   
#>  1 MONDO: glycogen storag "Phosphoglycerate ki 0010392    11 Concep MONDO   
#>  2 OMIM:6 NEURODEGENERATI "NEURODEGENERATION W 610217     NA Concep OMIM    
#>  3 MONDO: adult-onset dis "Adult-onset distal  0018006    10 Concep MONDO   
#>  4 MONDO: Charcot-Marie-T "Autosomal dominant  0011675     9 Concep MONDO   
#>  5 OMIM:6 MOTOR NEURON DI "MOTOR NEURON DISEAS 600333     NA Concep OMIM    
#>  6 MONDO: pure mitochondr "Pure mitochondrial  0016807    11 Concep MONDO   
#>  7 ORPHA: Congenital musc "Congenital muscular 258         8 Concep ORPHA   
#>  8 OMIM:3 MITOCHONDRIAL C "MITOCHONDRIAL COMPL 301021     NA Concep OMIM    
#>  9 ORPHA: Nocardiosis      "Nocardiosis is a lo 31204       4 Concep ORPHA   
#> 10 ORPHA: Mitochondrial e " mutation is charac 1194        9 Concep ORPHA   
#> #  with 387 more rows
…
