Benchmarking cross-references
…
Cortellis_condition

lapply(cort_cond, function(x){x %>% arrange(desc(n))})

## [[1]]
## # A tibble: 2,935 x 3
## # Groups:   from [2,935]
##    from                      DB1                      n
##    <chr>                     <chr>                <int>
##  1 Cortellis_indication:3077 Cortellis_indication   325
##  2 Cortellis_indication:3126 Cortellis_indication   278
##  3 Cortellis_indication:215  Cortellis_indication   190
##  4 Cortellis_indication:2004 Cortellis_indication   166
##  5 Cortellis_indication:1670 Cortellis_indication   110
##  6 Cortellis_indication:2122 Cortellis_indication    97
##  7 Cortellis_indication:1059 Cortellis_indication    96
##  8 Cortellis_indication:3422 Cortellis_indication    93
##  9 Cortellis_indication:2498 Cortellis_indication    89
## 10 Cortellis_indication:212  Cortellis_indication    88
## # … with 2,925 more rows
## 
## [[2]]
## # A tibble: 2,935 x 3
## # Groups:   from [2,935]
##    from                      DB1                      n
##    <chr>                     <chr>                <int>
##  1 Cortellis_indication:3077 Cortellis_indication   337
##  2 Cortellis_indication:3126 Cortellis_indication   294
##  3 Cortellis_indication:215  Cortellis_indication   242
##  4 Cortellis_indication:2004 Cortellis_indication   173
##  5 Cortellis_indication:1670 Cortellis_indication   172
##  6 Cortellis_indication:2006 Cortellis_indication   166
##  7 Cortellis_indication:2416 Cortellis_indication   133
##  8 Cortellis_indication:212  Cortellis_indication   127
##  9 Cortellis_indication:3834 Cortellis_indication   126
## 10 Cortellis_indication:276  Cortellis_indication   123
## # … with 2,925 more rows
## 
## [[3]]
## # A tibble: 2,935 x 3
## # Groups:   from [2,935]
##    from                      DB1                      n
##    <chr>                     <chr>                <int>
##  1 Cortellis_indication:3077 Cortellis_indication   337
##  2 Cortellis_indication:3126 Cortellis_indication   294
##  3 Cortellis_indication:215  Cortellis_indication   242
##  4 Cortellis_indication:2004 Cortellis_indication   173
##  5 Cortellis_indication:1670 Cortellis_indication   172
##  6 Cortellis_indication:2006 Cortellis_indication   166
##  7 Cortellis_indication:3207 Cortellis_indication   163
##  8 Cortellis_indication:1578 Cortellis_indication   161
##  9 Cortellis_indication:276  Cortellis_indication   137
## 10 Cortellis_indication:2122 Cortellis_indication   136
## # … with 2,925 more rows
## 
## [[4]]
## # A tibble: 2,935 x 3
## # Groups:   from [2,935]
##    from                      DB1                      n
##    <chr>                     <chr>                <int>
##  1 Cortellis_indication:3077 Cortellis_indication  2425
##  2 Cortellis_indication:1112 Cortellis_indication   483
##  3 Cortellis_indication:3126 Cortellis_indication   294
##  4 Cortellis_indication:215  Cortellis_indication   242
##  5 Cortellis_indication:1578 Cortellis_indication   185
##  6 Cortellis_indication:2004 Cortellis_indication   178
##  7 Cortellis_indication:1670 Cortellis_indication   172
##  8 Cortellis_indication:2006 Cortellis_indication   166
##  9 Cortellis_indication:3207 Cortellis_indication   163
## 10 Cortellis_indication:171  Cortellis_indication   147
## # … with 2,925 more rows
## 
## [[5]]
## # A tibble: 2,935 x 3
## # Groups:   from [2,935]
##    from                      DB1                      n
##    <chr>                     <chr>                <int>
##  1 Cortellis_indication:3077 Cortellis_indication  2425
##  2 Cortellis_indication:1112 Cortellis_indication   483
##  3 Cortellis_indication:3126 Cortellis_indication   294
##  4 Cortellis_indication:215  Cortellis_indication   242
##  5 Cortellis_indication:1578 Cortellis_indication   185
##  6 Cortellis_indication:2004 Cortellis_indication   178
##  7 Cortellis_indication:1670 Cortellis_indication   172
##  8 Cortellis_indication:2006 Cortellis_indication   166
##  9 Cortellis_indication:3207 Cortellis_indication   163
## 10 Cortellis_indication:171  Cortellis_indication   147
## # … with 2,925 more rows
## 
## [[6]]
## # A tibble: 2,935 x 3
## # Groups:   from [2,935]
##    from                      DB1                      n
##    <chr>                     <chr>                <int>
##  1 Cortellis_indication:3077 Cortellis_indication  2495
##  2 Cortellis_indication:1112 Cortellis_indication   560
##  3 Cortellis_indication:3126 Cortellis_indication   299
##  4 Cortellis_indication:215  Cortellis_indication   242
##  5 Cortellis_indication:1578 Cortellis_indication   187
##  6 Cortellis_indication:1670 Cortellis_indication   181
##  7 Cortellis_indication:2004 Cortellis_indication   178
##  8 Cortellis_indication:2006 Cortellis_indication   166
##  9 Cortellis_indication:3207 Cortellis_indication   163
## 10 Cortellis_indication:171  Cortellis_indication   160
## # … with 2,925 more rows
## 
## [[7]]
## # A tibble: 2,935 x 3
## # Groups:   from [2,935]
##    from                      DB1                      n
##    <chr>                     <chr>                <int>
##  1 Cortellis_indication:3077 Cortellis_indication  2956
##  2 Cortellis_indication:1112 Cortellis_indication   571
##  3 Cortellis_indication:2004 Cortellis_indication   549
##  4 Cortellis_indication:2122 Cortellis_indication   364
##  5 Cortellis_indication:3126 Cortellis_indication   299
##  6 Cortellis_indication:59   Cortellis_indication   295
##  7 Cortellis_indication:215  Cortellis_indication   242
##  8 Cortellis_indication:2498 Cortellis_indication   219
##  9 Cortellis_indication:1694 Cortellis_indication   209
## 10 Cortellis_indication:2784 Cortellis_indication   202
## # … with 2,925 more rows
## 
## [[8]]
## # A tibble: 2,935 x 3
## # Groups:   from [2,935]
##    from                      DB1                      n
##    <chr>                     <chr>                <int>
##  1 Cortellis_indication:3077 Cortellis_indication  2963
##  2 Cortellis_indication:3126 Cortellis_indication   945
##  3 Cortellis_indication:215  Cortellis_indication   709
##  4 Cortellis_indication:1112 Cortellis_indication   573
##  5 Cortellis_indication:2004 Cortellis_indication   549
##  6 Cortellis_indication:1670 Cortellis_indication   502
##  7 Cortellis_indication:2122 Cortellis_indication   364
##  8 Cortellis_indication:3422 Cortellis_indication   345
##  9 Cortellis_indication:59   Cortellis_indication   295
## 10 Cortellis_indication:2498 Cortellis_indication   284
## # … with 2,925 more rows
## 
## [[9]]
## # A tibble: 2,935 x 3
## # Groups:   from [2,935]
##    from                      DB1                      n
##    <chr>                     <chr>                <int>
##  1 Cortellis_indication:3077 Cortellis_indication  3033
##  2 Cortellis_indication:3126 Cortellis_indication   945
##  3 Cortellis_indication:215  Cortellis_indication   709
##  4 Cortellis_indication:1112 Cortellis_indication   642
##  5 Cortellis_indication:2004 Cortellis_indication   562
##  6 Cortellis_indication:1670 Cortellis_indication   503
##  7 Cortellis_indication:3422 Cortellis_indication   381
##  8 Cortellis_indication:59   Cortellis_indication   379
##  9 Cortellis_indication:2122 Cortellis_indication   364
## 10 Cortellis_indication:2498 Cortellis_indication   284
## # … with 2,925 more rows
## 
## [[10]]
## # A tibble: 2,935 x 3
## # Groups:   from [2,935]
##    from                      DB1                      n
##    <chr>                     <chr>                <int>
##  1 Cortellis_indication:3077 Cortellis_indication  3154
##  2 Cortellis_indication:3126 Cortellis_indication   953
##  3 Cortellis_indication:215  Cortellis_indication   758
##  4 Cortellis_indication:2004 Cortellis_indication   691
##  5 Cortellis_indication:1112 Cortellis_indication   676
##  6 Cortellis_indication:1670 Cortellis_indication   505
##  7 Cortellis_indication:2122 Cortellis_indication   434
##  8 Cortellis_indication:3097 Cortellis_indication   421
##  9 Cortellis_indication:3422 Cortellis_indication   380
## 10 Cortellis_indication:59   Cortellis_indication   366
## # … with 2,925 more rows
…
DO

do <- plyr::compact(do)
lapply(do, function(x){x %>% dplyr::arrange(desc(n))})

## $`2`
## # A tibble: 9,647 x 3
## # Groups:   from [9,647]
##    from         DB1       n
##    <chr>        <chr> <int>
##  1 DOID:8632    DOID     94
##  2 DOID:8649    DOID     52
##  3 DOID:8687    DOID     49
##  4 DOID:9261    DOID     47
##  5 DOID:5041    DOID     42
##  6 DOID:3627    DOID     41
##  7 DOID:1022    DOID     39
##  8 DOID:3393    DOID     39
##  9 DOID:0050776 DOID     38
## 10 DOID:10159   DOID     38
## # … with 9,637 more rows
## 
## $`3`
## # A tibble: 9,647 x 3
## # Groups:   from [9,647]
##    from         DB1       n
##    <chr>        <chr> <int>
##  1 DOID:8632    DOID     94
##  2 DOID:8649    DOID     52
##  3 DOID:8687    DOID     49
##  4 DOID:9261    DOID     47
##  5 DOID:5041    DOID     42
##  6 DOID:3627    DOID     41
##  7 DOID:1022    DOID     39
##  8 DOID:3393    DOID     39
##  9 DOID:0050776 DOID     38
## 10 DOID:10159   DOID     38
## # … with 9,637 more rows
## 
## $`4`
## # A tibble: 9,647 x 3
## # Groups:   from [9,647]
##    from         DB1       n
##    <chr>        <chr> <int>
##  1 DOID:10584   DOID    171
##  2 DOID:0050565 DOID    158
##  3 DOID:8632    DOID    111
##  4 DOID:0050564 DOID    101
##  5 DOID:0060308 DOID     93
##  6 DOID:2730    DOID     91
##  7 DOID:0050776 DOID     79
##  8 DOID:9261    DOID     70
##  9 DOID:8649    DOID     64
## 10 DOID:813     DOID     61
## # … with 9,637 more rows
## 
## $`5`
## # A tibble: 9,647 x 3
## # Groups:   from [9,647]
##    from         DB1       n
##    <chr>        <chr> <int>
##  1 DOID:2476    DOID    283
##  2 DOID:9884    DOID    205
##  3 DOID:10584   DOID    171
##  4 DOID:0050565 DOID    158
##  5 DOID:9406    DOID    122
##  6 DOID:8632    DOID    111
##  7 DOID:12930   DOID    107
##  8 DOID:0050564 DOID    101
##  9 DOID:231     DOID     96
## 10 DOID:12347   DOID     95
## # … with 9,637 more rows
## 
## $`6`
## # A tibble: 9,647 x 3
## # Groups:   from [9,647]
##    from         DB1       n
##    <chr>        <chr> <int>
##  1 DOID:2476    DOID    283
##  2 DOID:9884    DOID    205
##  3 DOID:10584   DOID    171
##  4 DOID:0050565 DOID    158
##  5 DOID:9406    DOID    122
##  6 DOID:8632    DOID    111
##  7 DOID:12930   DOID    107
##  8 DOID:0050564 DOID    101
##  9 DOID:231     DOID     96
## 10 DOID:12347   DOID     95
## # … with 9,637 more rows
## 
## $`7`
## # A tibble: 9,647 x 3
## # Groups:   from [9,647]
##    from         DB1       n
##    <chr>        <chr> <int>
##  1 DOID:2476    DOID    283
##  2 DOID:9884    DOID    205
##  3 DOID:10584   DOID    171
##  4 DOID:0050565 DOID    158
##  5 DOID:9406    DOID    122
##  6 DOID:8632    DOID    111
##  7 DOID:12930   DOID    107
##  8 DOID:0050564 DOID    101
##  9 DOID:231     DOID     96
## 10 DOID:12347   DOID     95
## # … with 9,637 more rows
## 
## $`8`
## # A tibble: 9,647 x 3
## # Groups:   from [9,647]
##    from         DB1       n
##    <chr>        <chr> <int>
##  1 DOID:2476    DOID    283
##  2 DOID:9884    DOID    205
##  3 DOID:10584   DOID    171
##  4 DOID:0050565 DOID    162
##  5 DOID:9406    DOID    128
##  6 DOID:8632    DOID    111
##  7 DOID:12930   DOID    107
##  8 DOID:0050564 DOID    101
##  9 DOID:231     DOID     96
## 10 DOID:12347   DOID     95
## # … with 9,637 more rows
## 
## $`9`
## # A tibble: 9,647 x 3
## # Groups:   from [9,647]
##    from         DB1       n
##    <chr>        <chr> <int>
##  1 DOID:2476    DOID    285
##  2 DOID:9884    DOID    205
##  3 DOID:10584   DOID    173
##  4 DOID:0050565 DOID    163
##  5 DOID:12347   DOID    146
##  6 DOID:9406    DOID    131
##  7 DOID:8632    DOID    111
##  8 DOID:12930   DOID    107
##  9 DOID:0050564 DOID    104
## 10 DOID:231     DOID    101
## # … with 9,637 more rows
## 
## $`10`
## # A tibble: 9,647 x 3
## # Groups:   from [9,647]
##    from         DB1       n
##    <chr>        <chr> <int>
##  1 DOID:2476    DOID    285
##  2 DOID:9884    DOID    205
##  3 DOID:10584   DOID    173
##  4 DOID:0050565 DOID    167
##  5 DOID:12347   DOID    146
##  6 DOID:9406    DOID    135
##  7 DOID:8632    DOID    111
##  8 DOID:12930   DOID    107
##  9 DOID:0050564 DOID    101
## 10 DOID:231     DOID    101
## # … with 9,637 more rows
## 
## $`11`
## # A tibble: 9,647 x 3
## # Groups:   from [9,647]
##    from         DB1       n
##    <chr>        <chr> <int>
##  1 DOID:2476    DOID    285
##  2 DOID:9884    DOID    205
##  3 DOID:0050565 DOID    188
##  4 DOID:10584   DOID    173
##  5 DOID:12347   DOID    146
##  6 DOID:9406    DOID    135
##  7 DOID:8632    DOID    111
##  8 DOID:0050564 DOID    107
##  9 DOID:12930   DOID    107
## 10 DOID:231     DOID    101
## # … with 9,637 more rows
## 
## $`12`
## # A tibble: 9,647 x 3
## # Groups:   from [9,647]
##    from         DB1       n
##    <chr>        <chr> <int>
##  1 DOID:2476    DOID    285
##  2 DOID:9884    DOID    205
##  3 DOID:0050565 DOID    188
##  4 DOID:10584   DOID    173
##  5 DOID:12347   DOID    146
##  6 DOID:9406    DOID    135
##  7 DOID:8632    DOID    111
##  8 DOID:0050564 DOID    107
##  9 DOID:12930   DOID    107
## 10 DOID:231     DOID    101
## # … with 9,637 more rows
## 
## $`13`
## # A tibble: 9,647 x 3
## # Groups:   from [9,647]
##    from         DB1       n
##    <chr>        <chr> <int>
##  1 DOID:2476    DOID    285
##  2 DOID:9884    DOID    205
##  3 DOID:0050565 DOID    188
##  4 DOID:10584   DOID    173
##  5 DOID:12347   DOID    146
##  6 DOID:9406    DOID    135
##  7 DOID:8632    DOID    111
##  8 DOID:0050564 DOID    107
##  9 DOID:12930   DOID    107
## 10 DOID:231     DOID    101
## # … with 9,637 more rows
## 
## $`14`
## # A tibble: 9,647 x 3
## # Groups:   from [9,647]
##    from         DB1       n
##    <chr>        <chr> <int>
##  1 DOID:2476    DOID    285
##  2 DOID:9884    DOID    205
##  3 DOID:0050565 DOID    188
##  4 DOID:10584   DOID    173
##  5 DOID:12347   DOID    146
##  6 DOID:9406    DOID    135
##  7 DOID:8632    DOID    111
##  8 DOID:0050564 DOID    107
##  9 DOID:12930   DOID    107
## 10 DOID:231     DOID    101
## # … with 9,637 more rows
## 
## $`15`
## # A tibble: 9,647 x 3
## # Groups:   from [9,647]
##    from         DB1       n
##    <chr>        <chr> <int>
##  1 DOID:2476    DOID    285
##  2 DOID:9884    DOID    205
##  3 DOID:0050565 DOID    188
##  4 DOID:10584   DOID    173
##  5 DOID:12347   DOID    146
##  6 DOID:9406    DOID    135
##  7 DOID:8632    DOID    111
##  8 DOID:0050564 DOID    107
##  9 DOID:12930   DOID    107
## 10 DOID:231     DOID    101
## # … with 9,637 more rows
## 
## $`16`
## # A tibble: 9,647 x 3
## # Groups:   from [9,647]
##    from         DB1       n
##    <chr>        <chr> <int>
##  1 DOID:10983   DOID    333
##  2 DOID:2476    DOID    285
##  3 DOID:9884    DOID    205
##  4 DOID:0050565 DOID    188
##  5 DOID:10584   DOID    173
##  6 DOID:12347   DOID    146
##  7 DOID:9406    DOID    135
##  8 DOID:2481    DOID    112
##  9 DOID:0050562 DOID    111
## 10 DOID:8632    DOID    111
## # … with 9,637 more rows
## 
## $`17`
## # A tibble: 9,647 x 3
## # Groups:   from [9,647]
##    from         DB1       n
##    <chr>        <chr> <int>
##  1 DOID:10983   DOID    333
##  2 DOID:2476    DOID    285
##  3 DOID:9884    DOID    205
##  4 DOID:0050565 DOID    188
##  5 DOID:10584   DOID    173
##  6 DOID:12347   DOID    146
##  7 DOID:9406    DOID    135
##  8 DOID:2481    DOID    112
##  9 DOID:0050562 DOID    111
## 10 DOID:8632    DOID    111
## # … with 9,637 more rows
## 
## $`18`
## # A tibble: 9,647 x 3
## # Groups:   from [9,647]
##    from         DB1       n
##    <chr>        <chr> <int>
##  1 DOID:10983   DOID    333
##  2 DOID:2476    DOID    285
##  3 DOID:9884    DOID    205
##  4 DOID:0050565 DOID    188
##  5 DOID:0080326 DOID    178
##  6 DOID:10584   DOID    178
##  7 DOID:11984   DOID    178
##  8 DOID:10871   DOID    163
##  9 DOID:4448    DOID    163
## 10 DOID:9406    DOID    150
## # … with 9,637 more rows
## 
## $`19`
## # A tibble: 9,647 x 3
## # Groups:   from [9,647]
##    from         DB1       n
##    <chr>        <chr> <int>
##  1 DOID:0110595 DOID    877
##  2 DOID:10983   DOID    334
##  3 DOID:2476    DOID    285
##  4 DOID:0110160 DOID    271
##  5 DOID:9884    DOID    205
##  6 DOID:0050565 DOID    188
##  7 DOID:0080326 DOID    180
##  8 DOID:11984   DOID    180
##  9 DOID:10584   DOID    178
## 10 DOID:446     DOID    165
## # … with 9,637 more rows
## 
## $`20`
## # A tibble: 9,647 x 3
## # Groups:   from [9,647]
##    from         DB1       n
##    <chr>        <chr> <int>
##  1 DOID:0110595 DOID    877
##  2 DOID:10983   DOID    334
##  3 DOID:2476    DOID    285
##  4 DOID:0110160 DOID    271
##  5 DOID:9884    DOID    205
##  6 DOID:0050565 DOID    188
##  7 DOID:0080326 DOID    180
##  8 DOID:11984   DOID    180
##  9 DOID:10584   DOID    178
## 10 DOID:446     DOID    165
## # … with 9,637 more rows
…
EFO

lapply(efo, function(x){x %>% dplyr::arrange(desc(n))})

## $`2`
## # A tibble: 11,750 x 3
## # Groups:   from [11,750]
##    from        DB1       n
##    <chr>       <chr> <int>
##  1 ORPHA:791   ORPHA   160
##  2 ORPHA:90636 ORPHA   146
##  3 ORPHA:90635 ORPHA    97
##  4 ORPHA:244   ORPHA    88
##  5 ORPHA:88616 ORPHA    88
##  6 ORPHA:777   ORPHA    77
##  7 ORPHA:1934  ORPHA    63
##  8 ORPHA:124   ORPHA    52
##  9 ORPHA:1872  ORPHA    45
## 10 ORPHA:2512  ORPHA    45
## # … with 11,740 more rows
## 
## $`3`
## # A tibble: 11,751 x 3
## # Groups:   from [11,751]
##    from        DB1       n
##    <chr>       <chr> <int>
##  1 ORPHA:791   ORPHA   160
##  2 ORPHA:90636 ORPHA   146
##  3 ORPHA:90635 ORPHA    97
##  4 ORPHA:244   ORPHA    88
##  5 ORPHA:88616 ORPHA    88
##  6 ORPHA:777   ORPHA    77
##  7 EFO:1000643 EFO      65
##  8 ORPHA:1934  ORPHA    65
##  9 ORPHA:124   ORPHA    52
## 10 ORPHA:1872  ORPHA    45
## # … with 11,741 more rows
## 
## $`4`
## # A tibble: 11,761 x 3
## # Groups:   from [11,761]
##    from          DB1       n
##    <chr>         <chr> <int>
##  1 EFO:0004128   EFO     324
##  2 ORPHA:791     ORPHA   171
##  3 MONDO:0019588 MONDO   158
##  4 ORPHA:90636   ORPHA   158
##  5 ORPHA:244     ORPHA   113
##  6 EFO:0000558   EFO     111
##  7 MONDO:0019587 MONDO   101
##  8 ORPHA:90635   ORPHA   101
##  9 ORPHA:88616   ORPHA    93
## 10 EFO:1000690   EFO      91
## # … with 11,751 more rows
## 
## $`5`
## # A tibble: 11,757 x 3
## # Groups:   from [11,757]
##    from          DB1       n
##    <chr>         <chr> <int>
##  1 EFO:0004128   EFO     329
##  2 ORPHA:685     ORPHA   283
##  3 ORPHA:98473   ORPHA   205
##  4 ORPHA:791     ORPHA   171
##  5 MONDO:0019588 MONDO   158
##  6 ORPHA:90636   ORPHA   158
##  7 ORPHA:244     ORPHA   123
##  8 EFO:0001380   EFO     122
##  9 EFO:0000558   EFO     111
## 10 EFO:0000407   EFO     107
## # … with 11,747 more rows
## 
## $`6`
## # A tibble: 11,753 x 3
## # Groups:   from [11,753]
##    from          DB1       n
##    <chr>         <chr> <int>
##  1 EFO:0004128   EFO     329
##  2 ORPHA:685     ORPHA   283
##  3 ORPHA:98473   ORPHA   205
##  4 ORPHA:791     ORPHA   171
##  5 MONDO:0019588 MONDO   158
##  6 ORPHA:90636   ORPHA   158
##  7 ORPHA:244     ORPHA   123
##  8 EFO:0001380   EFO     122
##  9 EFO:0000558   EFO     111
## 10 EFO:0000407   EFO     107
## # … with 11,743 more rows
## 
## $`7`
## # A tibble: 11,753 x 3
## # Groups:   from [11,753]
##    from          DB1       n
##    <chr>         <chr> <int>
##  1 EFO:0004128   EFO     329
##  2 ORPHA:685     ORPHA   283
##  3 ORPHA:98473   ORPHA   205
##  4 ORPHA:791     ORPHA   171
##  5 MONDO:0019588 MONDO   158
##  6 ORPHA:90636   ORPHA   158
##  7 ORPHA:244     ORPHA   123
##  8 EFO:0001380   EFO     122
##  9 EFO:0000558   EFO     111
## 10 EFO:0000407   EFO     107
## # … with 11,743 more rows
## 
## $`8`
…
